{
	"data": [
		[
			{"name": "jjj", "paid": "", "email": "", "cell": "", "displayName": "keith"}
			, {"name": "keith", "paid": "", "email": "", "cell": "", "displayName": "ttt"}
			, {"name": "", "paid": "", "email": "", "cell": "", "displayName": ""}
			, {"name": "", "paid": "", "email": "", "cell": "", "displayName": ""}
			, {"name": "", "paid": "", "email": "", "cell": "", "displayName": ""}
			, {"name": "", "paid": "", "email": "", "cell": "", "displayName": ""}
			, {"name": "", "paid": "", "email": "", "cell": "", "displayName": ""}
			, {"name": "", "paid": "", "email": "", "cell": "", "displayName": ""}
			, {"name": "", "paid": "", "email": "", "cell": "", "displayName": ""}
			, {"name": "", "paid": "", "email": "", "cell": "", "displayName": ""}
		]
		, [
			{"name": "", "paid": "", "email": "", "cell": "", "displayName": ""}
			, {"name": "", "paid": "", "email": "", "cell": "", "displayName": ""}
			, {"name": "", "paid": "", "email": "", "cell": "", "displayName": ""}
			, {"name": "", "paid": "", "email": "", "cell": "", "displayName": ""}
			, {"name": "", "paid": "", "email": "", "cell": "", "displayName": ""}
			, {"name": "", "paid": "", "email": "", "cell": "", "displayName": ""}
			, {"name": "", "paid": "", "email": "", "cell": "", "displayName": ""}
			, {"name": "", "paid": "", "email": "", "cell": "", "displayName": ""}
			, {"name": "", "paid": "", "email": "", "cell": "", "displayName": ""}
			, {"name": "", "paid": "", "email": "", "cell": "", "displayName": ""}
		]
		, [
			{"name": "", "paid": "", "email": "", "cell": "", "displayName": ""}
			, {"name": "", "paid": "", "email": "", "cell": "", "displayName": ""}
			, {"name": "", "paid": "", "email": "", "cell": "", "displayName": ""}
			, {"name": "", "paid": "", "email": "", "cell": "", "displayName": ""}
			, {"name": "", "paid": "", "email": "", "cell": "", "displayName": ""}
			, {"name": "", "paid": "", "email": "", "cell": "", "displayName": ""}
			, {"name": "", "paid": "", "email": "", "cell": "", "displayName": ""}
			, {"name": "", "paid": "", "email": "", "cell": "", "displayName": ""}
			, {"name": "", "paid": "", "email": "", "cell": "", "displayName": ""}
			, {"name": "", "paid": "", "email": "", "cell": "", "displayName": ""}
		]
		, [
			{"name": "", "paid": "", "email": "", "cell": "", "displayName": ""}
			, {"name": "", "paid": "", "email": "", "cell": "", "displayName": ""}
			, {"name": "", "paid": "", "email": "", "cell": "", "displayName": ""}
			, {"name": "", "paid": "", "email": "", "cell": "", "displayName": ""}
			, {"name": "", "paid": "", "email": "", "cell": "", "displayName": ""}
			, {"name": "", "paid": "", "email": "", "cell": "", "displayName": ""}
			, {"name": "", "paid": "", "email": "", "cell": "", "displayName": ""}
			, {"name": "", "paid": "", "email": "", "cell": "", "displayName": ""}
			, {"name": "", "paid": "", "email": "", "cell": "", "displayName": ""}
			, {"name": "", "paid": "", "email": "", "cell": "", "displayName": ""}
		]
		, [
			{"name": "", "paid": "", "email": "", "cell": "", "displayName": ""}
			, {"name": "", "paid": "", "email": "", "cell": "", "displayName": ""}
			, {"name": "", "paid": "", "email": "", "cell": "", "displayName": ""}
			, {"name": "", "paid": "", "email": "", "cell": "", "displayName": ""}
			, {"name": "", "paid": "", "email": "", "cell": "", "displayName": ""}
			, {"name": "", "paid": "", "email": "", "cell": "", "displayName": ""}
			, {"name": "", "paid": "", "email": "", "cell": "", "displayName": ""}
			, {"name": "", "paid": "", "email": "", "cell": "", "displayName": ""}
			, {"name": "", "paid": "", "email": "", "cell": "", "displayName": ""}
			, {"name": "", "paid": "", "email": "", "cell": "", "displayName": ""}
		]
		, [
			{"name": "", "paid": "", "email": "", "cell": "", "displayName": ""}
			, {"name": "", "paid": "", "email": "", "cell": "", "displayName": ""}
			, {"name": "", "paid": "", "email": "", "cell": "", "displayName": ""}
			, {"name": "", "paid": "", "email": "", "cell": "", "displayName": ""}
			, {"name": "", "paid": "", "email": "", "cell": "", "displayName": ""}
			, {"name": "", "paid": "", "email": "", "cell": "", "displayName": ""}
			, {"name": "", "paid": "", "email": "", "cell": "", "displayName": ""}
			, {"name": "", "paid": "", "email": "", "cell": "", "displayName": ""}
			, {"name": "", "paid": "", "email": "", "cell": "", "displayName": ""}
			, {"name": "", "paid": "", "email": "", "cell": "", "displayName": ""}
		]
		, [
			{"name": "", "paid": "", "email": "", "cell": "", "displayName": ""}
			, {"name": "", "paid": "", "email": "", "cell": "", "displayName": ""}
			, {"name": "", "paid": "", "email": "", "cell": "", "displayName": ""}
			, {"name": "", "paid": "", "email": "", "cell": "", "displayName": ""}
			, {"name": "", "paid": "", "email": "", "cell": "", "displayName": ""}
			, {"name": "", "paid": "", "email": "", "cell": "", "displayName": ""}
			, {"name": "", "paid": "", "email": "", "cell": "", "displayName": ""}
			, {"name": "", "paid": "", "email": "", "cell": "", "displayName": ""}
			, {"name": "", "paid": "", "email": "", "cell": "", "displayName": ""}
			, {"name": "", "paid": "", "email": "", "cell": "", "displayName": ""}
		]
		, [
			{"name": "", "paid": "", "email": "", "cell": "", "displayName": ""}
			, {"name": "", "paid": "", "email": "", "cell": "", "displayName": ""}
			, {"name": "", "paid": "", "email": "", "cell": "", "displayName": ""}
			, {"name": "", "paid": "", "email": "", "cell": "", "displayName": ""}
			, {"name": "", "paid": "", "email": "", "cell": "", "displayName": ""}
			, {"name": "", "paid": "", "email": "", "cell": "", "displayName": ""}
			, {"name": "", "paid": "", "email": "", "cell": "", "displayName": ""}
			, {"name": "", "paid": "", "email": "", "cell": "", "displayName": ""}
			, {"name": "", "paid": "", "email": "", "cell": "", "displayName": ""}
			, {"name": "", "paid": "", "email": "", "cell": "", "displayName": ""}
		]
		, [
			{"name": "", "paid": "", "email": "", "cell": "", "displayName": ""}
			, {"name": "", "paid": "", "email": "", "cell": "", "displayName": ""}
			, {"name": "", "paid": "", "email": "", "cell": "", "displayName": ""}
			, {"name": "", "paid": "", "email": "", "cell": "", "displayName": ""}
			, {"name": "", "paid": "", "email": "", "cell": "", "displayName": ""}
			, {"name": "", "paid": "", "email": "", "cell": "", "displayName": ""}
			, {"name": "", "paid": "", "email": "", "cell": "", "displayName": ""}
			, {"name": "", "paid": "", "email": "", "cell": "", "displayName": ""}
			, {"name": "", "paid": "", "email": "", "cell": "", "displayName": ""}
			, {"name": "", "paid": "", "email": "", "cell": "", "displayName": ""}
		]
		, [
			{"name": "", "paid": "", "email": "", "cell": "", "displayName": ""}
			, {"name": "", "paid": "", "email": "", "cell": "", "displayName": ""}
			, {"name": "", "paid": "", "email": "", "cell": "", "displayName": ""}
			, {"name": "", "paid": "", "email": "", "cell": "", "displayName": ""}
			, {"name": "", "paid": "", "email": "", "cell": "", "displayName": ""}
			, {"name": "", "paid": "", "email": "", "cell": "", "displayName": ""}
			, {"name": "", "paid": "", "email": "", "cell": "", "displayName": ""}
			, {"name": "", "paid": "", "email": "", "cell": "", "displayName": ""}
			, {"name": "", "paid": "", "email": "", "cell": "", "displayName": ""}
			, {"name": "", "paid": "", "email": "", "cell": "", "displayName": ""}
		]
	]
}